sim.log
Command: /home/host/digital_ic/rv64-all/./simv -l sim.log +fsdb+functions
Chronologic VCS simulator copyright 1991-2018
Contains Synopsys proprietary information.
Compiler version O-2018.09-1_Full64; Runtime version O-2018.09-1_Full64;  Sep 28 21:56 2024
VCD+ Writer O-2018.09-1_Full64 Copyright (c) 1991-2018 by Synopsys Inc.
*Verdi* Loading libsscore_vcs201809.so
FSDB Dumper for VCS, Release Verdi_O-2018.09-SP2, Linux x86_64/64bit, 02/21/2019
(C) 1996 - 2019 by Synopsys, Inc.
*Verdi* : Create FSDB file 'test.fsdb'
*Verdi* : Begin traversing the scope (tb_arbiter), layer (0).
*Verdi* : Enable +all and +functions dumping.
*Verdi* : End of traversing.
~~~~~~~~~~~~~~~~~~~~~~~~~~~~~~~cycle 0~~~~~~~~~~~~~~~~~~~~~~~~~~~~~~~~~~~~
~~~~~~~~~~~~~~~~~~~~~~~~~~~~~ISSUE QUEUE~~~~~~~~~~~~~~~~~~~~~~~~~~~~~~~~~~~~
~~~~~~~~~~~~~~~~~~~~~~~~~~correct op:  27~~~~~~~~~~~~~~~~~~~~~~~~~~~~~~~~~~~
| addr |  op | age | req | 
|    0 |   3 |  10 |   1 |
|    1 |  35 |   5 |   1 |
|    2 | 111 |   7 |   0 |
|    3 |  99 |   2 |   0 |
|    4 |  51 |  15 |   1 |
|    5 |  51 |  14 |   1 |
|    6 |   3 |   8 |   0 |
|    7 |  99 |  12 |   1 |
|    8 |  55 |  13 |   1 |
|    9 |  19 |   3 |   1 |
|   10 |  35 |   0 |   1 |
|   11 |  35 |   6 |   0 |
|   12 |  19 |  11 |   0 |
|   13 |   3 |   1 |   0 |
|   14 |  99 |   9 |   1 |
|   15 |  59 |   4 |   0 |
ISSUE QUEUE  0: Invalid ! No instruction can be issued !
~~~~~~~~~~~~~~~~~~~~~~~~~~~~~~~cycle 1~~~~~~~~~~~~~~~~~~~~~~~~~~~~~~~~~~~~
~~~~~~~~~~~~~~~~~~~~~~~~~~~~~ISSUE QUEUE~~~~~~~~~~~~~~~~~~~~~~~~~~~~~~~~~~~~
~~~~~~~~~~~~~~~~~~~~~~~~~~correct op:  51~~~~~~~~~~~~~~~~~~~~~~~~~~~~~~~~~~~
| addr |  op | age | req | 
|    0 |  35 |  13 |   0 |
|    1 |   3 |   9 |   1 |
|    2 |  99 |   6 |   0 |
|    3 | 103 |  10 |   0 |
|    4 | 103 |   5 |   0 |
|    5 |  35 |   4 |   0 |
|    6 |  99 |   7 |   1 |
|    7 |  27 |   8 |   0 |
|    8 |  23 |  14 |   0 |
|    9 |  51 |  12 |   0 |
|   10 |  27 |   0 |   1 |
|   11 |  23 |   3 |   1 |
|   12 |  55 |  11 |   0 |
|   13 |  99 |  15 |   1 |
|   14 | 111 |   1 |   1 |
|   15 |  59 |   2 |   1 |
ISSUE QUEUE  1: Invalid ! No instruction can be issued !
~~~~~~~~~~~~~~~~~~~~~~~~~~~~~~~cycle 2~~~~~~~~~~~~~~~~~~~~~~~~~~~~~~~~~~~~
~~~~~~~~~~~~~~~~~~~~~~~~~~~~~ISSUE QUEUE~~~~~~~~~~~~~~~~~~~~~~~~~~~~~~~~~~~~
~~~~~~~~~~~~~~~~~~~~~~~~~~correct op:  19~~~~~~~~~~~~~~~~~~~~~~~~~~~~~~~~~~~
| addr |  op | age | req | 
|    0 |  59 |   1 |   0 |
|    1 |  55 |   6 |   0 |
|    2 |   3 |  11 |   0 |
|    3 |  51 |   8 |   0 |
|    4 |  59 |   3 |   1 |
|    5 |  23 |   2 |   0 |
|    6 | 103 |   4 |   0 |
|    7 |  59 |   9 |   1 |
|    8 |  27 |   5 |   0 |
|    9 |  19 |   7 |   0 |
|   10 |  51 |  15 |   0 |
|   11 |  99 |  13 |   0 |
|   12 |  23 |  10 |   1 |
|   13 | 103 |  12 |   1 |
|   14 |  99 |  14 |   1 |
|   15 | 111 |   0 |   1 |
ISSUE QUEUE  2: Invalid ! No instruction can be issued !
~~~~~~~~~~~~~~~~~~~~~~~~~~~~~~~cycle 3~~~~~~~~~~~~~~~~~~~~~~~~~~~~~~~~~~~~
~~~~~~~~~~~~~~~~~~~~~~~~~~~~~ISSUE QUEUE~~~~~~~~~~~~~~~~~~~~~~~~~~~~~~~~~~~~
~~~~~~~~~~~~~~~~~~~~~~~~~~correct op:  23~~~~~~~~~~~~~~~~~~~~~~~~~~~~~~~~~~~
| addr |  op | age | req | 
|    0 |  19 |   0 |   0 |
|    1 |  51 |   2 |   0 |
|    2 |  27 |   4 |   0 |
|    3 |  35 |  13 |   0 |
|    4 |  35 |  11 |   0 |
|    5 | 111 |   9 |   1 |
|    6 | 103 |  14 |   0 |
|    7 |  23 |  15 |   1 | ◎ 
|    8 |  55 |   3 |   0 |
|    9 |   3 |   1 |   0 |
|   10 |  27 |   5 |   1 |
|   11 |  23 |   8 |   0 |
|   12 |  99 |   6 |   1 |
|   13 |  23 |  12 |   1 | ◎  √ 
|   14 | 103 |   7 |   0 |
|   15 |   3 |  10 |   1 |
ISSUE QUEUE  3: Pass ! The instruction in addr = 13 will be issued !
~~~~~~~~~~~~~~~~~~~~~~~~~~~~~~~cycle 4~~~~~~~~~~~~~~~~~~~~~~~~~~~~~~~~~~~~
~~~~~~~~~~~~~~~~~~~~~~~~~~~~~ISSUE QUEUE~~~~~~~~~~~~~~~~~~~~~~~~~~~~~~~~~~~~
~~~~~~~~~~~~~~~~~~~~~~~~~~correct op:  99~~~~~~~~~~~~~~~~~~~~~~~~~~~~~~~~~~~
| addr |  op | age | req | 
|    0 | 103 |  15 |   1 |
|    1 |  99 |   4 |   1 | ◎  √ 
|    2 | 103 |   7 |   0 |
|    3 | 111 |  13 |   0 |
|    4 |  19 |   0 |   1 |
|    5 | 103 |   2 |   0 |
|    6 | 103 |   9 |   0 |
|    7 |  27 |  12 |   1 |
|    8 |  59 |   3 |   0 |
|    9 | 111 |  10 |   0 |
|   10 | 111 |   8 |   1 |
|   11 |  27 |  11 |   1 |
|   12 |  23 |  14 |   0 |
|   13 |  51 |   6 |   1 |
|   14 |  55 |   5 |   0 |
|   15 |  27 |   1 |   1 |
ISSUE QUEUE  4: Pass ! The instruction in addr =  1 will be issued !
~~~~~~~~~~~~~~~~~~~~~~~~~~~~~~~cycle 5~~~~~~~~~~~~~~~~~~~~~~~~~~~~~~~~~~~~
~~~~~~~~~~~~~~~~~~~~~~~~~~~~~ISSUE QUEUE~~~~~~~~~~~~~~~~~~~~~~~~~~~~~~~~~~~~
~~~~~~~~~~~~~~~~~~~~~~~~~~correct op:   3~~~~~~~~~~~~~~~~~~~~~~~~~~~~~~~~~~~
| addr |  op | age | req | 
|    0 |  27 |   0 |   0 |
|    1 |  55 |   5 |   1 |
|    2 |  19 |   8 |   0 |
|    3 | 111 |   4 |   0 |
|    4 |  59 |   9 |   0 |
|    5 |  35 |   1 |   1 |
|    6 |  59 |   7 |   1 |
|    7 |  55 |  14 |   0 |
|    8 | 111 |  10 |   0 |
|    9 |  27 |  15 |   0 |
|   10 |  59 |  13 |   1 |
|   11 |  51 |   2 |   1 |
|   12 |  59 |  12 |   0 |
|   13 | 111 |  11 |   1 |
|   14 |   3 |   3 |   0 |
|   15 |  19 |   6 |   1 |
ISSUE QUEUE  5: Invalid ! No instruction can be issued !
~~~~~~~~~~~~~~~~~~~~~~~~~~~~~~~cycle 6~~~~~~~~~~~~~~~~~~~~~~~~~~~~~~~~~~~~
~~~~~~~~~~~~~~~~~~~~~~~~~~~~~ISSUE QUEUE~~~~~~~~~~~~~~~~~~~~~~~~~~~~~~~~~~~~
~~~~~~~~~~~~~~~~~~~~~~~~~~correct op:  19~~~~~~~~~~~~~~~~~~~~~~~~~~~~~~~~~~~
| addr |  op | age | req | 
|    0 |  99 |  13 |   0 |
|    1 |  51 |  15 |   1 |
|    2 |  51 |   8 |   1 |
|    3 |  19 |   0 |   1 | ◎  √ 
|    4 |  51 |   5 |   0 |
|    5 |  51 |  12 |   0 |
|    6 |  23 |  11 |   1 |
|    7 | 111 |   9 |   1 |
|    8 |  55 |   1 |   1 |
|    9 |  99 |   4 |   1 |
|   10 | 103 |  10 |   0 |
|   11 |  51 |  14 |   1 |
|   12 |  51 |   6 |   1 |
|   13 | 111 |   7 |   1 |
|   14 | 103 |   3 |   1 |
|   15 |  99 |   2 |   0 |
ISSUE QUEUE  6: Pass ! The instruction in addr =  3 will be issued !
~~~~~~~~~~~~~~~~~~~~~~~~~~~~~~~cycle 7~~~~~~~~~~~~~~~~~~~~~~~~~~~~~~~~~~~~
~~~~~~~~~~~~~~~~~~~~~~~~~~~~~ISSUE QUEUE~~~~~~~~~~~~~~~~~~~~~~~~~~~~~~~~~~~~
~~~~~~~~~~~~~~~~~~~~~~~~~~correct op:  99~~~~~~~~~~~~~~~~~~~~~~~~~~~~~~~~~~~
| addr |  op | age | req | 
|    0 |  19 |   7 |   0 |
|    1 |  55 |   1 |   0 |
|    2 |  59 |  11 |   0 |
|    3 |  59 |   5 |   0 |
|    4 |  99 |   9 |   1 | ◎  √ 
|    5 |  51 |  15 |   0 |
|    6 |  59 |   0 |   0 |
|    7 |  55 |   3 |   1 |
|    8 | 111 |   6 |   1 |
|    9 |  19 |   2 |   1 |
|   10 |  51 |  10 |   1 |
|   11 |  19 |  14 |   1 |
|   12 |  35 |  13 |   0 |
|   13 |  19 |  12 |   0 |
|   14 |  59 |   8 |   0 |
|   15 |  23 |   4 |   0 |
ISSUE QUEUE  7: Pass ! The instruction in addr =  4 will be issued !
~~~~~~~~~~~~~~~~~~~~~~~~~~~~~~~cycle 8~~~~~~~~~~~~~~~~~~~~~~~~~~~~~~~~~~~~
~~~~~~~~~~~~~~~~~~~~~~~~~~~~~ISSUE QUEUE~~~~~~~~~~~~~~~~~~~~~~~~~~~~~~~~~~~~
~~~~~~~~~~~~~~~~~~~~~~~~~~correct op:  55~~~~~~~~~~~~~~~~~~~~~~~~~~~~~~~~~~~
| addr |  op | age | req | 
|    0 |  51 |   0 |   0 |
|    1 |  51 |   3 |   1 |
|    2 | 103 |   8 |   0 |
|    3 |  35 |   1 |   0 |
|    4 |  99 |  15 |   1 |
|    5 |  19 |   7 |   0 |
|    6 |  59 |  10 |   1 |
|    7 |  27 |  13 |   1 |
|    8 | 111 |  11 |   1 |
|    9 |  51 |   2 |   1 |
|   10 | 103 |  12 |   1 |
|   11 |  59 |   5 |   0 |
|   12 |  59 |   4 |   1 |
|   13 |  51 |   9 |   1 |
|   14 |  19 |  14 |   0 |
|   15 |  59 |   6 |   0 |
ISSUE QUEUE  8: Invalid ! No instruction can be issued !
~~~~~~~~~~~~~~~~~~~~~~~~~~~~~~~cycle 9~~~~~~~~~~~~~~~~~~~~~~~~~~~~~~~~~~~~
~~~~~~~~~~~~~~~~~~~~~~~~~~~~~ISSUE QUEUE~~~~~~~~~~~~~~~~~~~~~~~~~~~~~~~~~~~~
~~~~~~~~~~~~~~~~~~~~~~~~~~correct op:  27~~~~~~~~~~~~~~~~~~~~~~~~~~~~~~~~~~~
| addr |  op | age | req | 
|    0 |  55 |   6 |   1 |
|    1 |  27 |  15 |   0 |
|    2 |  59 |   3 |   0 |
|    3 |  55 |   0 |   1 |
|    4 |  55 |   2 |   1 |
|    5 |  55 |   5 |   0 |
|    6 | 111 |   7 |   1 |
|    7 |  23 |   8 |   1 |
|    8 |  23 |  12 |   1 |
|    9 |  99 |   1 |   1 |
|   10 |  55 |  14 |   0 |
|   11 |  51 |   9 |   1 |
|   12 |  19 |  10 |   0 |
|   13 |  59 |  11 |   0 |
|   14 |  51 |   4 |   1 |
|   15 |  19 |  13 |   1 |
ISSUE QUEUE  9: Invalid ! No instruction can be issued !
~~~~~~~~~~~~~~~~~~~~~~~~~~~~~~~cycle10~~~~~~~~~~~~~~~~~~~~~~~~~~~~~~~~~~~~
~~~~~~~~~~~~~~~~~~~~~~~~~~~~~ISSUE QUEUE~~~~~~~~~~~~~~~~~~~~~~~~~~~~~~~~~~~~
~~~~~~~~~~~~~~~~~~~~~~~~~~correct op: 111~~~~~~~~~~~~~~~~~~~~~~~~~~~~~~~~~~~
| addr |  op | age | req | 
|    0 |  59 |  10 |   1 |
|    1 | 103 |  14 |   1 |
|    2 | 111 |   9 |   0 |
|    3 |  27 |  11 |   0 |
|    4 |   3 |  12 |   1 |
|    5 |  51 |   5 |   0 |
|    6 |  55 |   2 |   0 |
|    7 |  19 |   7 |   1 |
|    8 |  27 |   3 |   1 |
|    9 | 111 |   1 |   0 |
|   10 | 111 |  13 |   0 |
|   11 |  19 |   4 |   1 |
|   12 |  23 |  15 |   0 |
|   13 |  51 |   8 |   0 |
|   14 |  35 |   6 |   0 |
|   15 |  51 |   0 |   1 |
ISSUE QUEUE 10: Invalid ! No instruction can be issued !
~~~~~~~~~~~~~~~~~~~~~~~~~~~~~~~cycle11~~~~~~~~~~~~~~~~~~~~~~~~~~~~~~~~~~~~
~~~~~~~~~~~~~~~~~~~~~~~~~~~~~ISSUE QUEUE~~~~~~~~~~~~~~~~~~~~~~~~~~~~~~~~~~~~
~~~~~~~~~~~~~~~~~~~~~~~~~~correct op: 103~~~~~~~~~~~~~~~~~~~~~~~~~~~~~~~~~~~
| addr |  op | age | req | 
|    0 | 111 |  14 |   0 |
|    1 |  23 |  13 |   0 |
|    2 |   3 |   6 |   1 |
|    3 |  23 |  10 |   1 |
|    4 |  51 |   0 |   1 |
|    5 |  35 |   7 |   0 |
|    6 |  59 |   8 |   0 |
|    7 |  59 |   1 |   0 |
|    8 |  59 |  11 |   1 |
|    9 | 111 |  15 |   0 |
|   10 |  59 |   9 |   1 |
|   11 |  51 |   4 |   0 |
|   12 |  35 |   3 |   1 |
|   13 |  59 |  12 |   1 |
|   14 |  19 |   5 |   1 |
|   15 | 111 |   2 |   1 |
ISSUE QUEUE 11: Invalid ! No instruction can be issued !
~~~~~~~~~~~~~~~~~~~~~~~~~~~~~~~cycle12~~~~~~~~~~~~~~~~~~~~~~~~~~~~~~~~~~~~
~~~~~~~~~~~~~~~~~~~~~~~~~~~~~ISSUE QUEUE~~~~~~~~~~~~~~~~~~~~~~~~~~~~~~~~~~~~
~~~~~~~~~~~~~~~~~~~~~~~~~~correct op: 111~~~~~~~~~~~~~~~~~~~~~~~~~~~~~~~~~~~
| addr |  op | age | req | 
|    0 | 111 |   4 |   1 | ◎  √ 
|    1 |  99 |   5 |   1 |
|    2 |  59 |   3 |   0 |
|    3 |  59 |  13 |   1 |
|    4 |  51 |   1 |   0 |
|    5 |  99 |  14 |   1 |
|    6 |  19 |   8 |   1 |
|    7 |   3 |  10 |   0 |
|    8 |  27 |  11 |   0 |
|    9 | 111 |   9 |   0 |
|   10 |  27 |   2 |   1 |
|   11 |  35 |   0 |   0 |
|   12 |  51 |  15 |   0 |
|   13 |  59 |   6 |   0 |
|   14 |  51 |  12 |   0 |
|   15 |  51 |   7 |   0 |
ISSUE QUEUE 12: Pass ! The instruction in addr =  0 will be issued !
~~~~~~~~~~~~~~~~~~~~~~~~~~~~~~~cycle13~~~~~~~~~~~~~~~~~~~~~~~~~~~~~~~~~~~~
~~~~~~~~~~~~~~~~~~~~~~~~~~~~~ISSUE QUEUE~~~~~~~~~~~~~~~~~~~~~~~~~~~~~~~~~~~~
~~~~~~~~~~~~~~~~~~~~~~~~~~correct op: 111~~~~~~~~~~~~~~~~~~~~~~~~~~~~~~~~~~~
| addr |  op | age | req | 
|    0 |   3 |   5 |   1 |
|    1 |  55 |   0 |   1 |
|    2 |  23 |   6 |   0 |
|    3 |  51 |  10 |   1 |
|    4 | 111 |   1 |   0 |
|    5 | 103 |   7 |   1 |
|    6 |  35 |   4 |   1 |
|    7 |  99 |   9 |   1 |
|    8 | 103 |  15 |   0 |
|    9 |  59 |   8 |   1 |
|   10 | 103 |   3 |   1 |
|   11 |  59 |  13 |   0 |
|   12 |  19 |  11 |   1 |
|   13 |   3 |  12 |   0 |
|   14 |  59 |  14 |   1 |
|   15 |  99 |   2 |   0 |
ISSUE QUEUE 13: Invalid ! No instruction can be issued !
~~~~~~~~~~~~~~~~~~~~~~~~~~~~~~~cycle14~~~~~~~~~~~~~~~~~~~~~~~~~~~~~~~~~~~~
~~~~~~~~~~~~~~~~~~~~~~~~~~~~~ISSUE QUEUE~~~~~~~~~~~~~~~~~~~~~~~~~~~~~~~~~~~~
~~~~~~~~~~~~~~~~~~~~~~~~~~correct op:  35~~~~~~~~~~~~~~~~~~~~~~~~~~~~~~~~~~~
| addr |  op | age | req | 
|    0 |  99 |  13 |   1 |
|    1 |  23 |   1 |   0 |
|    2 |  59 |   4 |   0 |
|    3 |  51 |   6 |   1 |
|    4 |  27 |   8 |   0 |
|    5 | 103 |  15 |   1 |
|    6 |  19 |  10 |   1 |
|    7 |  59 |  14 |   1 |
|    8 |  51 |   7 |   1 |
|    9 |  59 |   0 |   1 |
|   10 |  23 |   3 |   0 |
|   11 |  99 |  12 |   0 |
|   12 |  99 |   9 |   0 |
|   13 |   3 |   5 |   0 |
|   14 |  51 |   2 |   0 |
|   15 |  35 |  11 |   1 | ◎  √ 
ISSUE QUEUE 14: Pass ! The instruction in addr = 15 will be issued !
~~~~~~~~~~~~~~~~~~~~~~~~~~~~~~~cycle15~~~~~~~~~~~~~~~~~~~~~~~~~~~~~~~~~~~~
~~~~~~~~~~~~~~~~~~~~~~~~~~~~~ISSUE QUEUE~~~~~~~~~~~~~~~~~~~~~~~~~~~~~~~~~~~~
~~~~~~~~~~~~~~~~~~~~~~~~~~correct op:  19~~~~~~~~~~~~~~~~~~~~~~~~~~~~~~~~~~~
| addr |  op | age | req | 
|    0 |  27 |  12 |   0 |
|    1 |  35 |   8 |   0 |
|    2 |   3 |   4 |   1 |
|    3 |  23 |   2 |   1 |
|    4 |   3 |  15 |   1 |
|    5 |   3 |   5 |   1 |
|    6 | 103 |   1 |   1 |
|    7 |  55 |  11 |   0 |
|    8 |   3 |   6 |   0 |
|    9 |  23 |  10 |   0 |
|   10 |  19 |  13 |   1 | ◎ 
|   11 | 103 |  14 |   1 |
|   12 |  51 |   3 |   0 |
|   13 |  59 |   7 |   1 |
|   14 |  59 |   0 |   0 |
|   15 |  19 |   9 |   1 | ◎  √ 
ISSUE QUEUE 15: Pass ! The instruction in addr = 15 will be issued !
~~~~~~~~~~~~~~~~~~~~~~~~~~~~~~~cycle16~~~~~~~~~~~~~~~~~~~~~~~~~~~~~~~~~~~~
~~~~~~~~~~~~~~~~~~~~~~~~~~~~~ISSUE QUEUE~~~~~~~~~~~~~~~~~~~~~~~~~~~~~~~~~~~~
~~~~~~~~~~~~~~~~~~~~~~~~~~correct op: 103~~~~~~~~~~~~~~~~~~~~~~~~~~~~~~~~~~~
| addr |  op | age | req | 
|    0 |  99 |   8 |   1 |
|    1 |  99 |   3 |   1 |
|    2 |  59 |   9 |   0 |
|    3 |  19 |  13 |   0 |
|    4 |  51 |  15 |   1 |
|    5 |  19 |  11 |   0 |
|    6 |  55 |   6 |   0 |
|    7 |  99 |   1 |   0 |
|    8 |  19 |  10 |   0 |
|    9 |  19 |   5 |   1 |
|   10 |  99 |   7 |   1 |
|   11 |  59 |   2 |   1 |
|   12 |  99 |  14 |   0 |
|   13 |  59 |   4 |   0 |
|   14 | 111 |  12 |   1 |
|   15 | 103 |   0 |   0 |
ISSUE QUEUE 16: Invalid ! No instruction can be issued !
~~~~~~~~~~~~~~~~~~~~~~~~~~~~~~~cycle17~~~~~~~~~~~~~~~~~~~~~~~~~~~~~~~~~~~~
~~~~~~~~~~~~~~~~~~~~~~~~~~~~~ISSUE QUEUE~~~~~~~~~~~~~~~~~~~~~~~~~~~~~~~~~~~~
~~~~~~~~~~~~~~~~~~~~~~~~~~correct op:  59~~~~~~~~~~~~~~~~~~~~~~~~~~~~~~~~~~~
| addr |  op | age | req | 
|    0 |  99 |  11 |   0 |
|    1 |  59 |   5 |   0 |
|    2 |  23 |  10 |   1 |
|    3 |  59 |   8 |   0 |
|    4 |   3 |   0 |   0 |
|    5 |  51 |   1 |   1 |
|    6 |  23 |  12 |   1 |
|    7 |  27 |  13 |   0 |
|    8 |  27 |   9 |   0 |
|    9 |  59 |  15 |   0 |
|   10 |  99 |   2 |   1 |
|   11 |  59 |   7 |   0 |
|   12 |  51 |  14 |   1 |
|   13 | 103 |   4 |   1 |
|   14 |  51 |   6 |   0 |
|   15 |  27 |   3 |   1 |
ISSUE QUEUE 17: Invalid ! No instruction can be issued !
~~~~~~~~~~~~~~~~~~~~~~~~~~~~~~~cycle18~~~~~~~~~~~~~~~~~~~~~~~~~~~~~~~~~~~~
~~~~~~~~~~~~~~~~~~~~~~~~~~~~~ISSUE QUEUE~~~~~~~~~~~~~~~~~~~~~~~~~~~~~~~~~~~~
~~~~~~~~~~~~~~~~~~~~~~~~~~correct op:  23~~~~~~~~~~~~~~~~~~~~~~~~~~~~~~~~~~~
| addr |  op | age | req | 
|    0 |  55 |   2 |   1 |
|    1 | 111 |   0 |   0 |
|    2 |  51 |  11 |   1 |
|    3 |  59 |   5 |   1 |
|    4 |  23 |   7 |   0 |
|    5 |  59 |   9 |   0 |
|    6 | 103 |   3 |   0 |
|    7 |  35 |  10 |   0 |
|    8 |  99 |  12 |   0 |
|    9 |  59 |  14 |   0 |
|   10 |   3 |  13 |   0 |
|   11 |  99 |   8 |   1 |
|   12 |   3 |   6 |   1 |
|   13 |  35 |   1 |   0 |
|   14 |  51 |   4 |   0 |
|   15 |  23 |  15 |   1 | ◎  √ 
ISSUE QUEUE 18: Pass ! The instruction in addr = 15 will be issued !
~~~~~~~~~~~~~~~~~~~~~~~~~~~~~~~cycle19~~~~~~~~~~~~~~~~~~~~~~~~~~~~~~~~~~~~
~~~~~~~~~~~~~~~~~~~~~~~~~~~~~ISSUE QUEUE~~~~~~~~~~~~~~~~~~~~~~~~~~~~~~~~~~~~
~~~~~~~~~~~~~~~~~~~~~~~~~~correct op:   3~~~~~~~~~~~~~~~~~~~~~~~~~~~~~~~~~~~
| addr |  op | age | req | 
|    0 |  51 |  11 |   1 |
|    1 |  19 |   0 |   0 |
|    2 |   3 |   7 |   1 | ◎  √ 
|    3 | 103 |  15 |   0 |
|    4 |  51 |   3 |   0 |
|    5 |  23 |  12 |   0 |
|    6 |  19 |   1 |   0 |
|    7 |  23 |   6 |   0 |
|    8 |  51 |   5 |   0 |
|    9 |  51 |   4 |   0 |
|   10 | 111 |  13 |   0 |
|   11 |  27 |  10 |   1 |
|   12 |  19 |   9 |   1 |
|   13 | 111 |  14 |   0 |
|   14 |  19 |   8 |   1 |
|   15 |  19 |   2 |   0 |
ISSUE QUEUE 19: Pass ! The instruction in addr =  2 will be issued !
$finish called from file "./test/tb_arbiter.v", line 20.
$finish at simulation time                  200
           V C S   S i m u l a t i o n   R e p o r t 
Time: 200 ns
CPU Time:      0.180 seconds;       Data structure size:   0.0Mb
Sat Sep 28 21:56:03 2024
